<?xml version="1.0" encoding="UTF-8" standalone="no"?> <svg xmlns="http://www.w3.org/2000/svg" xmlns:xlink="http://www.w3.org/1999/xlink" width="708pt" height="377pt" viewBox="0.00 0.00 708 376.8">
<g id="graph0" class="graph" transform="translate(4, 372.79998779296875)">
<title>%0</title>
<polygon fill="#ffffff" stroke="transparent" points="-4,4 -4,-372.8 704,-372.8 704,4 -4,4"></polygon>
<g id="clust1" class="cluster">
<title>cluster</title>
<polygon fill="#234178" fill-opacity="0.184314" stroke="#000000" points="8,-8 8,-360.8 692,-360.8 692,-8 8,-8"></polygon>
<text text-anchor="middle" x="350" y="-344.2" font-family="Times,serif" font-size="14.00" fill="#000000">Global</text>
</g>
<g id="clust4" class="cluster">
<title>cluster_3</title>
<polygon fill="#234178" fill-opacity="0.184314" stroke="#000000" points="368,-166 368,-328 684,-328 684,-166 368,-166"></polygon>
</g>
<!-- Mapper_0_2243888751452045688_0_1 -->
<g id="node1" class="node">
<title>Logger_0_0_01</title>
<g id="a_node1">">
<polygon fill="#fffea3" stroke="transparent" points="322.5,-66 271.5,-66 271.5,-16 322.5,-16 322.5,-66"></polygon>
<text text-anchor="start" x="275.8423" y="-48.5" font-family="times" font-size="15.00" fill="#000000">Logger</text>
<text text-anchor="start" x="284.375" y="-24.5" font-family="times" font-size="15.00" fill="#000000">0.01</text>
<polygon fill="#000000" stroke="#000000" points="272,-41 272,-41 323,-41 323,-41 272,-41"></polygon>
<polygon fill="none" stroke="#000000" points="271.5,-16 271.5,-66 322.5,-66 322.5,-16 271.5,-16"></polygon>
</g>
</g>
<!-- csum_0 -->
<g id="node2" class="node">
<title>a_0</title>
<g id="a_node2">
<ellipse fill="#d3d247" stroke="#000000" cx="374" cy="-120" rx="27" ry="18"></ellipse>
<text text-anchor="middle" x="374" y="-115.8" font-family="Times,serif" font-size="14.00" fill="#000000">a</text>
</g>
</g>
<!-- Mapper_0_2243888751452045688_0_1&#45;&gt;csum_0 -->
<g id="edge3" class="edge">
<title>a_0-&gt;Logger_0_0_01</title>
<path fill="none" stroke="#112c5f" stroke-width="2" d="M359.1536,-104.768C350.4897,-95.8791 339.2167,-84.3132 328.6539,-73.4761"></path>
<polygon fill="#112c5f" stroke="#112c5f" stroke-width="2" points="330.9818,-70.85 321.4955,-66.1318 325.969,-75.7359 330.9818,-70.85"></polygon>
</g>
<!-- Logger_0_0_1 -->

<!-- L_physical_0 -->

<!-- x_physical_0 -->
<g id="edge4" class="edge">
<title>h_0-&gt;x_physical_0</title>
<path fill="none" stroke="#112c5f" stroke-width="2" d="M54.1492,-194.4702C60.7314,-185.4313 69.5992,-174.3989 79,-166 89.6822,-156.4562 102.5697,-147.624 114.5244,-140.3034"></path>
<polygon fill="#112c5f" stroke="#112c5f" stroke-width="2" points="116.6215,-143.1287 123.4324,-135.0132 113.0472,-137.1101 116.6215,-143.1287"></polygon>
</g>
<!-- L_physical_0&#45;&gt;x_physical_0 -->
<g id="node4" class="node">
<title>i_0</title>
<g id="a_node4">
<ellipse fill="#d3d247" stroke="#000000" cx="476" cy="-120" rx="27" ry="18"></ellipse>
<text text-anchor="middle" x="476" y="-115.8" font-family="Times,serif" font-size="14.00" fill="#000000">i</text>
</g>
</g>
<!-- c_0 -->
<g id="node5" class="node">
<title>tau_0</title>
<g id="a_node5">
<ellipse fill="#d3d247" stroke="#000000" cx="331" cy="-302" rx="27" ry="18"></ellipse>
<text text-anchor="middle" x="331" y="-297.8" font-family="Times,serif" font-size="14.00" fill="#000000">tau</text>
</g>
</g>
<!-- time_numerical_0 -->
<g id="node6" class="node">
<title>time_numerical_0</title>
<g id="a_node6">
<ellipse fill="#d3d247" stroke="#000000" cx="217" cy="-302" rx="69.4573" ry="18"></ellipse>
<text text-anchor="middle" x="217" y="-297.8" font-family="Times,serif" font-size="14.00" fill="#000000">time.numerical</text>
</g>
</g>
<!-- time_physical_0 -->
<g id="node7" class="node">
<title>time_physical_0</title>
<g id="a_node7">
<ellipse fill="#d3d247" stroke="#000000" cx="297" cy="-211" rx="62.598" ry="18"></ellipse>
<text text-anchor="middle" x="297" y="-206.8" font-family="Times,serif" font-size="14.00" fill="#000000">time.physical</text>
</g>
</g><g id="edge10" class="edge">
<title>tau_0-&gt;time_physical_0</title>
<path fill="none" stroke="#112c5f" stroke-width="2" d="M324.4445,-284.4543C319.6154,-271.5295 312.9506,-253.6913 307.3982,-238.8304"></path>
<polygon fill="#112c5f" stroke="#112c5f" stroke-width="2" points="310.5468,-237.2572 303.7681,-229.1147 303.9895,-239.7072 310.5468,-237.2572"></polygon>
</g>
<!-- time_numerical_0&#45;&gt;time_physical_0 -->
<g id="edge11" class="edge">
<title>time_numerical_0-&gt;time_physical_0</title>
<path fill="none" stroke="#112c5f" stroke-width="2" d="M232.8054,-284.0213C244.8262,-270.3477 261.5166,-251.3623 274.8658,-236.1776"></path>
<polygon fill="#112c5f" stroke="#112c5f" stroke-width="2" points="277.5257,-238.453 281.4996,-228.6317 272.2684,-233.8312 277.5257,-238.453"></polygon>
</g><g id="node11" class="node">
<title style="">System_3_5332865730815343349_3_9583333333e_05</title>
<g id="a_node11">" style="">
<polygon fill="#fffea3" stroke="transparent" points="564,-248 388,-248 388,-174 564,-174 564,-248" style=""></polygon>
<text text-anchor="start" x="453.9163" y="-230.5" font-family="times" font-size="15.00" fill="#000000" style="">System</text>
<text text-anchor="start" x="391.8642" y="-207.5" font-family="times" font-style="italic" font-size="15.00" fill="#000000" style="">'Activator-Inhibitor-Model'</text>
<text text-anchor="start" x="438.299" y="-182.5" font-family="times" font-size="15.00" fill="#000000" style="">3.95833e-05</text>
<polygon fill="#000000" stroke="#000000" points="388,-199 388,-199 564,-199 564,-199 388,-199" style=""></polygon>
<polygon fill="none" stroke="#000000" points="388,-174 388,-248 564,-248 564,-174 388,-174" style=""></polygon>
</g>
</g>
<!-- time_physical_0&#45;&gt;Logger_0_0_1 -->
<g id="edge9" class="edge">
<title style="">tau_0-&gt;System_3_5332865730815343349_3_9583333333e_05</title>
<path fill="none" stroke="#112c5f" stroke-width="2" d="M350.8576,-289.5376C365.855,-280.1255 387.3729,-266.6211 408.3474,-253.4578"></path>
<polygon fill="#112c5f" stroke="#112c5f" stroke-width="2" points="410.3578,-256.3284 416.9674,-248.048 406.6367,-250.3993 410.3578,-256.3284"></polygon>
</g>
<!-- x_numerical_0 -->
<g id="node8" class="node">
<title>x_numerical_0</title>
<g id="a_node8">
<ellipse fill="#b5b426" stroke="#000000" cx="73" cy="-302" rx="56.7814" ry="18"></ellipse>
<text text-anchor="middle" x="73" y="-297.8" font-family="Times,serif" font-size="14.00" fill="#000000">x.numerical</text>
</g>
</g>
<!-- x_numerical_x_0 -->
<!-- x_numerical_x_0 -->
<g id="node9" class="node">
<title>x_numerical_x_0</title>
<ellipse fill="#d3d247" stroke="#000000" cx="152" cy="-211" rx="64.2669" ry="18"></ellipse>
<text text-anchor="middle" x="152" y="-206.8" font-family="Times,serif" font-size="14.00" fill="#000000">x.numerical.x</text>
</g><g id="node3" class="node">
<title>h_0</title>
<g id="a_node3">
<ellipse fill="#d3d247" stroke="#000000" cx="43" cy="-211" rx="27" ry="18"></ellipse>
<text text-anchor="middle" x="43" y="-206.8" font-family="Times,serif" font-size="14.00" fill="#000000">h</text>
</g>
</g>
<!-- x_numerical_0&#45;&gt;x_numerical_x_0 -->
<g id="edge15" class="edge">
<title>x_physical_0-&gt;Logger_0_0_01</title>
<path fill="none" stroke="#112c5f" stroke-width="2" d="M179.9575,-104.768C203.4117,-91.9895 237.0203,-73.6786 262.2113,-59.9539"></path>
<polygon fill="#112c5f" stroke="#112c5f" stroke-width="2" points="263.9701,-62.9814 271.0769,-55.1236 260.6211,-56.8345 263.9701,-62.9814"></polygon>
</g><g id="edge1" class="edge">
<title style="">System_3_5332865730815343349_3_9583333333e_05-&gt;a_0</title>
<path fill="none" stroke="#8f100d" stroke-width="3" d="M434.5127,-173.9868C421.9969,-162.8207 408.6886,-150.9477 397.7488,-141.1877" style=""></path>
<polygon fill="#8f100d" stroke="#8f100d" stroke-width="3" points="400.0388,-138.5402 390.2468,-134.4947 395.3787,-143.7636 400.0388,-138.5402" style=""></polygon>
</g>
<!-- x_numerical_0&#45;&gt;x_numerical_x_0 -->
<g id="edge13" class="edge">
<title>x_numerical_0-&gt;x_numerical_x_0</title>
<path fill="none" stroke="#38568c" stroke-dasharray="5,2" d="M88.232,-284.4543C102.2211,-268.3403 122.8405,-244.5888 136.8148,-228.4919"></path>
</g>
<!-- x_physical_0 -->
<g id="edge2" class="edge">
<title style="">System_3_5332865730815343349_3_9583333333e_05-&gt;i_0</title>
<path fill="none" stroke="#8f100d" stroke-width="3" d="M476,-173.9868C476,-165.3649 476,-156.3214 476,-148.1547" style=""></path>
<polygon fill="#8f100d" stroke="#8f100d" stroke-width="3" points="479.5001,-148.033 476,-138.033 472.5001,-148.0331 479.5001,-148.033" style=""></polygon>
</g>
<!-- x_physical_0 -->
<g id="node10" class="node">
<title>x_physical_0</title>
<g id="a_node10">
<ellipse fill="#d3d247" stroke="#000000" cx="152" cy="-120" rx="50.422" ry="18"></ellipse>
<text text-anchor="middle" x="152" y="-115.8" font-family="Times,serif" font-size="14.00" fill="#000000">x.physical</text>
</g>
</g><g id="edge12" class="edge">
<title>time_physical_0-&gt;Logger_0_0_01</title>
<path fill="none" stroke="#112c5f" stroke-width="2" d="M297,-192.807C297,-165.1726 297,-112.0881 297,-76.5995"></path>
<polygon fill="#112c5f" stroke="#112c5f" stroke-width="2" points="300.5001,-76.1984 297,-66.1984 293.5001,-76.1985 300.5001,-76.1984"></polygon>
</g>
<!-- x_numerical_x_0&#45;&gt;x_physical_0 -->
<g id="node12" class="node">
<title>mu_a_3</title>
<g id="a_node12">
<ellipse fill="#d3d247" stroke="#000000" cx="644" cy="-302" rx="32.4846" ry="18"></ellipse>
<text text-anchor="middle" x="644" y="-297.8" font-family="Times,serif" font-size="14.00" fill="#000000">mu_a</text>
</g>
</g>
<!-- x_numerical_x_0&#45;&gt;x_physical_0 -->
<g id="edge14" class="edge">
<title>x_numerical_x_0-&gt;x_physical_0</title>
<path fill="none" stroke="#112c5f" stroke-width="2" d="M152,-192.5848C152,-179.9209 152,-162.8558 152,-148.4541"></path>
<polygon fill="#112c5f" stroke="#112c5f" stroke-width="2" points="155.5001,-148.0772 152,-138.0773 148.5001,-148.0773 155.5001,-148.0772"></polygon>
</g>
<!-- x_physical_0&#45;&gt;Logger_0_0_1 -->
<g id="edge5" class="edge">
<title style="">mu_a_3-&gt;System_3_5332865730815343349_3_9583333333e_05</title>
<path fill="none" stroke="#112c5f" stroke-width="2" d="M620.6403,-289.3468C603.0549,-279.8214 577.8772,-266.1835 553.4437,-252.9487"></path>
<polygon fill="#112c5f" stroke="#112c5f" stroke-width="2" points="554.951,-249.7847 544.491,-248.0993 551.617,-255.9397 554.951,-249.7847"></polygon>
</g>
<!-- x_physical_0&#45;&gt;Logger_0_0_1 -->

<!-- System_3_0_004655 -->

<!-- System_3_0_004655&#45;&gt;c_0 -->

<g id="node13" class="node">
<title>mu_i_3</title>
<g id="a_node13">
<ellipse fill="#d3d247" stroke="#000000" cx="563" cy="-302" rx="30.7789" ry="18"></ellipse>
<text text-anchor="middle" x="563" y="-297.8" font-family="Times,serif" font-size="14.00" fill="#000000">mu_i</text>
</g>
</g>
<!-- System_3_0_0002909375 -->
<g id="edge6" class="edge">
<title style="">mu_i_3-&gt;System_3_5332865730815343349_3_9583333333e_05</title>
<path fill="none" stroke="#112c5f" stroke-width="2" d="M547.8458,-286.149C539.6973,-277.6259 529.1985,-266.6444 518.7568,-255.7226"></path>
<polygon fill="#112c5f" stroke="#112c5f" stroke-width="2" points="521.0069,-253.0114 511.5666,-248.2019 515.9472,-257.8487 521.0069,-253.0114"></polygon>
</g>
<!-- System_3_0_0002909375&#45;&gt;c_0 -->
<g id="node14" class="node">
<title>rho_3</title>
<g id="a_node14">
<ellipse fill="#d3d247" stroke="#000000" cx="487" cy="-302" rx="27" ry="18"></ellipse>
<text text-anchor="middle" x="487" y="-297.8" font-family="Times,serif" font-size="14.00" fill="#000000">rho</text>
</g>
</g>
<!-- rho_3&#45;&gt;System_3_5332865730815343349_2_96875e_05 -->
<g id="edge7" class="edge">
<title style="">rho_3-&gt;System_3_5332865730815343349_3_9583333333e_05</title>
<path fill="none" stroke="#112c5f" stroke-width="2" d="M484.8268,-284.0213C483.9163,-276.4897 482.8111,-267.3465 481.6952,-258.1146"></path>
<polygon fill="#112c5f" stroke="#112c5f" stroke-width="2" points="485.1636,-257.6419 480.4887,-248.1342 478.2142,-258.482 485.1636,-257.6419"></polygon>
</g>
<!-- rho_a_3 -->
<g id="node15" class="node">
<title>rho_a_3</title>
<g id="a_node15">
<ellipse fill="#d3d247" stroke="#000000" cx="409" cy="-302" rx="33.0469" ry="18"></ellipse>
<text text-anchor="middle" x="409" y="-297.8" font-family="Times,serif" font-size="14.00" fill="#000000">rho_a</text>
</g>
</g>
<!-- rho_a_3&#45;&gt;System_3_5332865730815343349_2_96875e_05 -->
<g id="edge8" class="edge">
<title style="">rho_a_3-&gt;System_3_5332865730815343349_3_9583333333e_05</title>
<path fill="none" stroke="#112c5f" stroke-width="2" d="M421.6022,-284.8836C427.6442,-276.6773 435.1962,-266.4201 442.7325,-256.1842"></path>
<polygon fill="#112c5f" stroke="#112c5f" stroke-width="2" points="445.6335,-258.1473 448.744,-248.0193 439.9965,-253.997 445.6335,-258.1473"></polygon>
</g>
</g>
</svg>