<?xml version="1.0" encoding="UTF-8" standalone="no"?> <svg xmlns="http://www.w3.org/2000/svg" xmlns:xlink="http://www.w3.org/1999/xlink" width="3508pt" height="274pt" viewBox="0.00 0.00 3508.00 273.80">
<g id="graph0" class="graph" transform="scale(1 1) rotate(0) translate(4 269.8)">
<title style="">%0</title>
<polygon fill="#ffffff" stroke="transparent" points="-4,4 -4,-269.8 3504,-269.8 3504,4 -4,4" style=""></polygon>
<g id="clust1" class="cluster">
<title style="">cluster</title>
<polygon fill="#234178" fill-opacity="0.184314" stroke="#000000" points="8,-8 8,-257.8 3492,-257.8 3492,-8 8,-8" style=""></polygon>
<text text-anchor="middle" x="1750" y="-241.2" font-family="Times,serif" font-size="14.00" fill="#000000" style="">Global</text>
</g>
<g id="clust2" class="cluster">
<title style="">cluster_1</title>
<polygon fill="#234178" fill-opacity="0.184314" stroke="#000000" points="78,-80 78,-225 3484,-225 3484,-80 78,-80" style=""></polygon>
</g>
<!-- Logger_0_0_1 -->
<g id="node1" class="node">
<title style="">Logger_0_0_1</title>
<g id="a_node1">" style="">
<polygon fill="#fffea3" stroke="transparent" points="67.5,-224 16.5,-224 16.5,-174 67.5,-174 67.5,-224" style=""></polygon>
<text text-anchor="start" x="20.8423" y="-206.5" font-family="times" font-size="15.00" fill="#000000" style="">Logger</text>
<text text-anchor="start" x="33.125" y="-182.5" font-family="times" font-size="15.00" fill="#000000" style="">0.1</text>
<polygon fill="#000000" stroke="#000000" points="17,-199 17,-199 68,-199 68,-199 17,-199" style=""></polygon>
<polygon fill="none" stroke="#000000" points="16.5,-174 16.5,-224 67.5,-224 67.5,-174 16.5,-174" style=""></polygon>
</g>
</g>
<!-- Ecadherin_0 -->
<g id="node2" class="node">
<title style="">Ecadherin_0</title>
<g id="a_node2">
<ellipse fill="#d3d247" stroke="#000000" cx="1444" cy="-34" rx="50.3606" ry="18" style=""></ellipse>
<text text-anchor="middle" x="1444" y="-29.8" font-family="Times,serif" font-size="14.00" fill="#000000" style="">Ecadherin</text>
</g>
</g>
<!-- Ncadherin_0 -->
<g id="node3" class="node">
<title style="">Ncadherin_0</title>
<g id="a_node3">
<ellipse fill="#d3d247" stroke="#000000" cx="1563" cy="-34" rx="51.005" ry="18" style=""></ellipse>
<text text-anchor="middle" x="1563" y="-29.8" font-family="Times,serif" font-size="14.00" fill="#000000" style="">Ncadherin</text>
</g>
</g>
<!-- SNAIL_0 -->
<g id="node4" class="node">
<title style="">SNAIL_0</title>
<g id="a_node4">
<ellipse fill="#d3d247" stroke="#000000" cx="1672" cy="-34" rx="39.4235" ry="18" style=""></ellipse>
<text text-anchor="middle" x="1672" y="-29.8" font-family="Times,serif" font-size="14.00" fill="#000000" style="">SNAIL</text>
</g>
</g>
<!-- TGF_0 -->
<g id="node5" class="node">
<title style="">TGF_0</title>
<g id="a_node5">
<ellipse fill="#d3d247" stroke="#000000" cx="1759" cy="-34" rx="29.0529" ry="18" style=""></ellipse>
<text text-anchor="middle" x="1759" y="-29.8" font-family="Times,serif" font-size="14.00" fill="#000000" style="">TGF</text>
</g>
</g>
<!-- ZEB_0 -->
<g id="node6" class="node">
<title style="">ZEB_0</title>
<g id="a_node6">
<ellipse fill="#d3d247" stroke="#000000" cx="1836" cy="-34" rx="29.0529" ry="18" style=""></ellipse>
<text text-anchor="middle" x="1836" y="-29.8" font-family="Times,serif" font-size="14.00" fill="#000000" style="">ZEB</text>
</g>
</g>
<!-- miR200_0 -->
<g id="node7" class="node">
<title style="">miR200_0</title>
<g id="a_node7">
<ellipse fill="#d3d247" stroke="#000000" cx="1925" cy="-34" rx="42.3165" ry="18" style=""></ellipse>
<text text-anchor="middle" x="1925" y="-29.8" font-family="Times,serif" font-size="14.00" fill="#000000" style="">miR200</text>
</g>
</g>
<!-- miR34_0 -->
<g id="node8" class="node">
<title style="">miR34_0</title>
<g id="a_node8">
<ellipse fill="#d3d247" stroke="#000000" cx="2022" cy="-34" rx="37.1597" ry="18" style=""></ellipse>
<text text-anchor="middle" x="2022" y="-29.8" font-family="Times,serif" font-size="14.00" fill="#000000" style="">miR34</text>
</g>
</g>
<!-- snail_0 -->
<g id="node9" class="node">
<title style="">snail_0</title>
<g id="a_node9">
<ellipse fill="#d3d247" stroke="#000000" cx="2107" cy="-34" rx="29.0509" ry="18" style=""></ellipse>
<text text-anchor="middle" x="2107" y="-29.8" font-family="Times,serif" font-size="14.00" fill="#000000" style="">snail</text>
</g>
</g>
<!-- zeb_0 -->
<g id="node10" class="node">
<title style="">zeb_0</title>
<g id="a_node10">
<ellipse fill="#d3d247" stroke="#000000" cx="2181" cy="-34" rx="27" ry="18" style=""></ellipse>
<text text-anchor="middle" x="2181" y="-29.8" font-family="Times,serif" font-size="14.00" fill="#000000" style="">zeb</text>
</g>
</g>
<!-- System_1_0_1 -->
<g id="node11" class="node">
<title style="">System_1_0_1</title>
<g id="a_node11">" style="">
<polygon fill="#fffea3" stroke="transparent" points="1862,-138 1810,-138 1810,-88 1862,-88 1862,-138" style=""></polygon>
<text text-anchor="start" x="1813.9163" y="-120.5" font-family="times" font-size="15.00" fill="#000000" style="">System</text>
<text text-anchor="start" x="1826.625" y="-96.5" font-family="times" font-size="15.00" fill="#000000" style="">0.1</text>
<polygon fill="#000000" stroke="#000000" points="1810,-113 1810,-113 1862,-113 1862,-113 1810,-113" style=""></polygon>
<polygon fill="none" stroke="#000000" points="1810,-88 1810,-138 1862,-138 1862,-88 1810,-88" style=""></polygon>
</g>
</g>
<!-- System_1_0_1&#45;&gt;Ecadherin_0 -->
<g id="edge14" class="edge">
<title style="">System_1_0_1-&gt;Ecadherin_0</title>
<path fill="none" stroke="#8f100d" stroke-width="3" d="M1809.8787,-109.2615C1753.4397,-100.9556 1616.0753,-79.5091 1503,-52 1499.1304,-51.0586 1495.14,-50.0109 1491.1456,-48.9076" style=""></path>
<polygon fill="#8f100d" stroke="#8f100d" stroke-width="3" points="1491.8521,-45.4692 1481.2748,-46.0795 1489.9241,-52.1985 1491.8521,-45.4692" style=""></polygon>
</g>
<!-- System_1_0_1&#45;&gt;Ncadherin_0 -->
<g id="edge15" class="edge">
<title style="">System_1_0_1-&gt;Ncadherin_0</title>
<path fill="none" stroke="#8f100d" stroke-width="3" d="M1809.8737,-105.5441C1769.84,-94.1054 1690.9205,-71.501 1624,-52 1620.1738,-50.885 1616.2139,-49.7266 1612.2341,-48.5592" style=""></path>
<polygon fill="#8f100d" stroke="#8f100d" stroke-width="3" points="1612.9463,-45.1206 1602.3651,-45.6585 1610.9723,-51.8365 1612.9463,-45.1206" style=""></polygon>
</g>
<!-- System_1_0_1&#45;&gt;SNAIL_0 -->
<g id="edge16" class="edge">
<title style="">System_1_0_1-&gt;SNAIL_0</title>
<path fill="none" stroke="#8f100d" stroke-width="3" d="M1809.6506,-100.3073C1782.2437,-87.1052 1739.1329,-66.3384 1708.4648,-51.5654" style=""></path>
<polygon fill="#8f100d" stroke="#8f100d" stroke-width="3" points="1709.906,-48.3747 1699.3778,-47.1881 1706.868,-54.6812 1709.906,-48.3747" style=""></polygon>
</g>
<!-- System_1_0_1&#45;&gt;TGF_0 -->
<g id="edge17" class="edge">
<title style="">System_1_0_1-&gt;TGF_0</title>
<path fill="none" stroke="#8f100d" stroke-width="3" d="M1811.2129,-87.5691C1801.6383,-77.7458 1790.7623,-66.5873 1781.4242,-57.0066" style=""></path>
<polygon fill="#8f100d" stroke="#8f100d" stroke-width="3" points="1783.8055,-54.4353 1774.3192,-49.7171 1778.7926,-59.3212 1783.8055,-54.4353" style=""></polygon>
</g>
<!-- System_1_0_1&#45;&gt;ZEB_0 -->
<g id="edge18" class="edge">
<title style="">System_1_0_1-&gt;ZEB_0</title>
<path fill="none" stroke="#8f100d" stroke-width="3" d="M1836,-87.5691C1836,-79.5402 1836,-70.6193 1836,-62.397" style=""></path>
<polygon fill="#8f100d" stroke="#8f100d" stroke-width="3" points="1839.5001,-62.1242 1836,-52.1242 1832.5001,-62.1242 1839.5001,-62.1242" style=""></polygon>
</g>
<!-- System_1_0_1&#45;&gt;miR200_0 -->
<g id="edge19" class="edge">
<title style="">System_1_0_1-&gt;miR200_0</title>
<path fill="none" stroke="#8f100d" stroke-width="3" d="M1862.2216,-89.7247C1873.8033,-79.4443 1887.3844,-67.3891 1898.9467,-57.126" style=""></path>
<polygon fill="#8f100d" stroke="#8f100d" stroke-width="3" points="1901.4241,-59.6069 1906.5794,-50.3509 1896.7772,-54.3718 1901.4241,-59.6069" style=""></polygon>
</g>
<!-- System_1_0_1&#45;&gt;miR34_0 -->
<g id="edge20" class="edge">
<title style="">System_1_0_1-&gt;miR34_0</title>
<path fill="none" stroke="#8f100d" stroke-width="3" d="M1862.2548,-101.8488C1894.1525,-88.3008 1948.1911,-65.349 1984.4749,-49.9381" style=""></path>
<polygon fill="#8f100d" stroke="#8f100d" stroke-width="3" points="1985.9123,-53.1302 1993.7482,-45.9994 1983.1757,-46.6873 1985.9123,-53.1302" style=""></polygon>
</g>
<!-- System_1_0_1&#45;&gt;snail_0 -->
<g id="edge21" class="edge">
<title style="">System_1_0_1-&gt;snail_0</title>
<path fill="none" stroke="#8f100d" stroke-width="3" d="M1862.1995,-107.684C1905.659,-98.5188 1995.0952,-78.1802 2068,-52 2070.2503,-51.1919 2072.5486,-50.3039 2074.8477,-49.3687" style=""></path>
<polygon fill="#8f100d" stroke="#8f100d" stroke-width="3" points="2076.3865,-52.5167 2084.182,-45.3418 2073.6136,-46.0893 2076.3865,-52.5167" style=""></polygon>
</g>
<!-- System_1_0_1&#45;&gt;zeb_0 -->
<g id="edge22" class="edge">
<title style="">System_1_0_1-&gt;zeb_0</title>
<path fill="none" stroke="#8f100d" stroke-width="3" d="M1862.2521,-110.2293C1916.3305,-104.0021 2043.5827,-86.6559 2145,-52 2146.8845,-51.356 2148.7956,-50.6324 2150.704,-49.8547" style=""></path>
<polygon fill="#8f100d" stroke="#8f100d" stroke-width="3" points="2152.4026,-52.9285 2160.0881,-45.6357 2149.5322,-46.5441 2152.4026,-52.9285" style=""></polygon>
</g>
<!-- J12_1 -->
<g id="node12" class="node">
<title style="">J12_1</title>
<g id="a_node12">
<ellipse fill="#d3d247" stroke="#000000" cx="3449" cy="-199" rx="27" ry="18" style=""></ellipse>
<text text-anchor="middle" x="3449" y="-194.8" font-family="Times,serif" font-size="14.00" fill="#000000" style="">J12</text>
</g>
</g>
<!-- J12_1&#45;&gt;System_1_0_1 -->
<g id="edge1" class="edge">
<title style="">J12_1-&gt;System_1_0_1</title>
<path fill="none" stroke="#112c5f" stroke-width="2" d="M3432.5088,-184.6259C3426.7219,-180.4124 3419.9275,-176.3174 3413,-174 3262.5664,-123.6759 2093.7891,-114.4816 1872.1983,-113.1855" style=""></path>
<polygon fill="#112c5f" stroke="#112c5f" stroke-width="2" points="1872.1017,-109.685 1862.0819,-113.128 1872.0619,-116.6849 1872.1017,-109.685" style=""></polygon>
</g>
<!-- J134_1 -->
<g id="node13" class="node">
<title style="">J134_1</title>
<g id="a_node13">
<ellipse fill="#d3d247" stroke="#000000" cx="3375" cy="-199" rx="29.0567" ry="18" style=""></ellipse>
<text text-anchor="middle" x="3375" y="-194.8" font-family="Times,serif" font-size="14.00" fill="#000000" style="">J134</text>
</g>
</g>
<!-- J134_1&#45;&gt;System_1_0_1 -->
<g id="edge2" class="edge">
<title style="">J134_1-&gt;System_1_0_1</title>
<path fill="none" stroke="#112c5f" stroke-width="2" d="M3357.097,-184.3678C3351.0668,-180.2479 3344.0664,-176.2734 3337,-174 3193.7136,-127.9021 2088.2563,-115.3391 1872.4578,-113.3157" style=""></path>
<polygon fill="#112c5f" stroke="#112c5f" stroke-width="2" points="1872.33,-109.8145 1862.2982,-113.2222 1872.2655,-116.8142 1872.33,-109.8145" style=""></polygon>
</g>
<!-- J22_1 -->
<g id="node14" class="node">
<title style="">J22_1</title>
<g id="a_node14">
<ellipse fill="#d3d247" stroke="#000000" cx="3301" cy="-199" rx="27" ry="18" style=""></ellipse>
<text text-anchor="middle" x="3301" y="-194.8" font-family="Times,serif" font-size="14.00" fill="#000000" style="">J22</text>
</g>
</g>
<!-- J22_1&#45;&gt;System_1_0_1 -->
<g id="edge3" class="edge">
<title style="">J22_1-&gt;System_1_0_1</title>
<path fill="none" stroke="#112c5f" stroke-width="2" d="M3284.5034,-184.6421C3278.7161,-180.4297 3271.9229,-176.3313 3265,-174 3129.5396,-128.3834 2081.7954,-115.4778 1872.3627,-113.3428" style=""></path>
<polygon fill="#112c5f" stroke="#112c5f" stroke-width="2" points="1872.2425,-109.8416 1862.208,-113.2411 1872.1724,-116.8412 1872.2425,-109.8416" style=""></polygon>
</g>
<!-- J234_1 -->
<g id="node15" class="node">
<title style="">J234_1</title>
<g id="a_node15">
<ellipse fill="#d3d247" stroke="#000000" cx="3227" cy="-199" rx="29.0567" ry="18" style=""></ellipse>
<text text-anchor="middle" x="3227" y="-194.8" font-family="Times,serif" font-size="14.00" fill="#000000" style="">J234</text>
</g>
</g>
<!-- J234_1&#45;&gt;System_1_0_1 -->
<g id="edge4" class="edge">
<title style="">J234_1-&gt;System_1_0_1</title>
<path fill="none" stroke="#112c5f" stroke-width="2" d="M3209.0909,-184.3866C3203.0604,-180.2678 3196.0613,-176.2891 3189,-174 3060.656,-132.3949 2074.8888,-116.3598 1872.3186,-113.4876" style=""></path>
<polygon fill="#112c5f" stroke="#112c5f" stroke-width="2" points="1872.2548,-109.9864 1862.2067,-113.346 1872.1567,-116.9857 1872.2548,-109.9864" style=""></polygon>
</g>
<!-- JSNAIL_1 -->
<g id="node16" class="node">
<title style="">JSNAIL_1</title>
<g id="a_node16">
<ellipse fill="#d3d247" stroke="#000000" cx="3137" cy="-199" rx="43.4357" ry="18" style=""></ellipse>
<text text-anchor="middle" x="3137" y="-194.8" font-family="Times,serif" font-size="14.00" fill="#000000" style="">JSNAIL</text>
</g>
</g>
<!-- JSNAIL_1&#45;&gt;System_1_0_1 -->
<g id="edge5" class="edge">
<title style="">JSNAIL_1-&gt;System_1_0_1</title>
<path fill="none" stroke="#112c5f" stroke-width="2" d="M3111.5839,-184.2872C3103.3613,-180.2167 3094.0296,-176.291 3085,-174 2964.8271,-143.5103 2064.6417,-118.8639 1872.1537,-113.9091" style=""></path>
<polygon fill="#112c5f" stroke="#112c5f" stroke-width="2" points="1872.0916,-110.4065 1862.0053,-113.6493 1871.9124,-117.4042 1872.0916,-110.4065" style=""></polygon>
</g>
<!-- JTGF_1 -->
<g id="node17" class="node">
<title style="">JTGF_1</title>
<g id="a_node17">
<ellipse fill="#d3d247" stroke="#000000" cx="3043" cy="-199" rx="33.0624" ry="18" style=""></ellipse>
<text text-anchor="middle" x="3043" y="-194.8" font-family="Times,serif" font-size="14.00" fill="#000000" style="">JTGF</text>
</g>
</g>
<!-- JTGF_1&#45;&gt;System_1_0_1 -->
<g id="edge6" class="edge">
<title style="">JTGF_1-&gt;System_1_0_1</title>
<path fill="none" stroke="#112c5f" stroke-width="2" d="M3022.9994,-184.4192C3016.323,-180.302 3008.6329,-176.3161 3001,-174 2890.7915,-140.5581 2056.7103,-118.3865 1872.1022,-113.8585" style=""></path>
<polygon fill="#112c5f" stroke="#112c5f" stroke-width="2" points="1872.1776,-110.3594 1862.0953,-113.6148 1872.0071,-117.3573 1872.1776,-110.3594" style=""></polygon>
</g>
<!-- JZEB_1 -->
<g id="node18" class="node">
<title style="">JZEB_1</title>
<g id="a_node18">
<ellipse fill="#d3d247" stroke="#000000" cx="2959" cy="-199" rx="33.0624" ry="18" style=""></ellipse>
<text text-anchor="middle" x="2959" y="-194.8" font-family="Times,serif" font-size="14.00" fill="#000000" style="">JZEB</text>
</g>
</g>
<!-- JZEB_1&#45;&gt;System_1_0_1 -->
<g id="edge7" class="edge">
<title style="">JZEB_1-&gt;System_1_0_1</title>
<path fill="none" stroke="#112c5f" stroke-width="2" d="M2938.9937,-184.4378C2932.3171,-180.3216 2924.6281,-176.3316 2917,-174 2815.3206,-142.9208 2048.9967,-119.1299 1872.2771,-114.0206" style=""></path>
<polygon fill="#112c5f" stroke="#112c5f" stroke-width="2" points="1872.292,-110.5197 1862.1956,-113.7309 1872.0909,-117.5168 1872.292,-110.5197" style=""></polygon>
</g>
<!-- Jecad1_1 -->
<g id="node19" class="node">
<title style="">Jecad1_1</title>
<g id="a_node19">
<ellipse fill="#d3d247" stroke="#000000" cx="2871" cy="-199" rx="37.1194" ry="18" style=""></ellipse>
<text text-anchor="middle" x="2871" y="-194.8" font-family="Times,serif" font-size="14.00" fill="#000000" style="">Jecad1</text>
</g>
</g>
<!-- Jecad1_1&#45;&gt;System_1_0_1 -->
<g id="edge8" class="edge">
<title style="">Jecad1_1-&gt;System_1_0_1</title>
<path fill="none" stroke="#112c5f" stroke-width="2" d="M2848.4011,-184.4734C2840.9183,-180.3592 2832.3607,-176.3613 2824,-174 2639.88,-121.9996 2028.6479,-114.3095 1872.5467,-113.1885" style=""></path>
<polygon fill="#112c5f" stroke="#112c5f" stroke-width="2" points="1872.1294,-109.6857 1862.1061,-113.1186 1872.0824,-116.6855 1872.1294,-109.6857" style=""></polygon>
</g>
<!-- Jecad2_1 -->
<g id="node20" class="node">
<title style="">Jecad2_1</title>
<g id="a_node20">
<ellipse fill="#d3d247" stroke="#000000" cx="2778" cy="-199" rx="37.1194" ry="18" style=""></ellipse>
<text text-anchor="middle" x="2778" y="-194.8" font-family="Times,serif" font-size="14.00" fill="#000000" style="">Jecad2</text>
</g>
</g>
<!-- Jecad2_1&#45;&gt;System_1_0_1 -->
<g id="edge9" class="edge">
<title style="">Jecad2_1-&gt;System_1_0_1</title>
<path fill="none" stroke="#112c5f" stroke-width="2" d="M2755.439,-184.2395C2748.2291,-180.2195 2740.0298,-176.3342 2732,-174 2566.5839,-125.9143 2019.1625,-115.3921 1872.4468,-113.4128" style=""></path>
<polygon fill="#112c5f" stroke="#112c5f" stroke-width="2" points="1872.2418,-109.91 1862.1972,-113.2798 1872.1509,-116.9094 1872.2418,-109.91" style=""></polygon>
</g>
<!-- Jncad1_1 -->
<g id="node21" class="node">
<title style="">Jncad1_1</title>
<g id="a_node21">
<ellipse fill="#d3d247" stroke="#000000" cx="2685" cy="-199" rx="37.7025" ry="18" style=""></ellipse>
<text text-anchor="middle" x="2685" y="-194.8" font-family="Times,serif" font-size="14.00" fill="#000000" style="">Jncad1</text>
</g>
</g>
<!-- Jncad1_1&#45;&gt;System_1_0_1 -->
<g id="edge10" class="edge">
<title style="">Jncad1_1-&gt;System_1_0_1</title>
<path fill="none" stroke="#112c5f" stroke-width="2" d="M2662.3806,-184.5449C2654.8968,-180.4345 2646.3436,-176.4208 2638,-174 2491.27,-131.4283 2009.4021,-117.0659 1872.5438,-113.7923" style=""></path>
<polygon fill="#112c5f" stroke="#112c5f" stroke-width="2" points="1872.2767,-110.2851 1862.1976,-113.5504 1872.113,-117.2832 1872.2767,-110.2851" style=""></polygon>
</g>
<!-- Jncad2_1 -->
<g id="node22" class="node">
<title style="">Jncad2_1</title>
<g id="a_node22">
<ellipse fill="#d3d247" stroke="#000000" cx="2591" cy="-199" rx="37.7025" ry="18" style=""></ellipse>
<text text-anchor="middle" x="2591" y="-194.8" font-family="Times,serif" font-size="14.00" fill="#000000" style="">Jncad2</text>
</g>
</g>
<!-- Jncad2_1&#45;&gt;System_1_0_1 -->
<g id="edge11" class="edge">
<title style="">Jncad2_1-&gt;System_1_0_1</title>
<path fill="none" stroke="#112c5f" stroke-width="2" d="M2567.8867,-184.3331C2560.5175,-180.3168 2552.1541,-176.4102 2544,-174 2415.9619,-136.1542 1998.3314,-118.6992 1872.3202,-114.2085" style=""></path>
<polygon fill="#112c5f" stroke="#112c5f" stroke-width="2" points="1872.1762,-110.7014 1862.0597,-113.8487 1871.9308,-117.6971 1872.1762,-110.7014" style=""></polygon>
</g>
<!-- Jsnail_1 -->
<g id="node23" class="node">
<title style="">Jsnail_1</title>
<g id="a_node23">
<ellipse fill="#d3d247" stroke="#000000" cx="2502" cy="-199" rx="33.0604" ry="18" style=""></ellipse>
<text text-anchor="middle" x="2502" y="-194.8" font-family="Times,serif" font-size="14.00" fill="#000000" style="">Jsnail</text>
</g>
</g>
<!-- Jsnail_1&#45;&gt;System_1_0_1 -->
<g id="edge12" class="edge">
<title style="">Jsnail_1-&gt;System_1_0_1</title>
<path fill="none" stroke="#112c5f" stroke-width="2" d="M2481.9342,-184.6254C2475.2544,-180.5193 2467.5786,-176.4878 2460,-174 2349.431,-137.7045 1988.2363,-119.4844 1872.2257,-114.466" style=""></path>
<polygon fill="#112c5f" stroke="#112c5f" stroke-width="2" points="1872.2325,-110.9632 1862.0926,-114.0345 1871.9345,-117.9569 1872.2325,-110.9632" style=""></polygon>
</g>
<!-- Jzeb_1 -->
<g id="node24" class="node">
<title style="">Jzeb_1</title>
<g id="a_node24">
<ellipse fill="#d3d247" stroke="#000000" cx="2423" cy="-199" rx="28.3893" ry="18" style=""></ellipse>
<text text-anchor="middle" x="2423" y="-194.8" font-family="Times,serif" font-size="14.00" fill="#000000" style="">Jzeb</text>
</g>
</g>
<!-- Jzeb_1&#45;&gt;System_1_0_1 -->
<g id="edge13" class="edge">
<title style="">Jzeb_1-&gt;System_1_0_1</title>
<path fill="none" stroke="#112c5f" stroke-width="2" d="M2405.5191,-184.6578C2399.645,-180.5534 2392.8397,-176.5148 2386,-174 2290.9782,-139.0626 1979.6253,-120.3063 1872.553,-114.7684" style=""></path>
<polygon fill="#112c5f" stroke="#112c5f" stroke-width="2" points="1872.4262,-111.2575 1862.2611,-114.2444 1872.0702,-118.2484 1872.4262,-111.2575" style=""></polygon>
</g>
<!-- TGF0_1 -->
<g id="node25" class="node">
<title style="">TGF0_1</title>
<g id="a_node25">
<ellipse fill="#d3d247" stroke="#000000" cx="2343" cy="-199" rx="34.2084" ry="18" style=""></ellipse>
<text text-anchor="middle" x="2343" y="-194.8" font-family="Times,serif" font-size="14.00" fill="#000000" style="">TGF0</text>
</g>
</g>
<!-- TGF0_1&#45;&gt;System_1_0_1 -->
<g id="edge23" class="edge">
<title style="">TGF0_1-&gt;System_1_0_1</title>
<path fill="none" stroke="#112c5f" stroke-width="2" d="M2321.9265,-184.5229C2315.1875,-180.5144 2307.5192,-176.5644 2300,-174 2220.5857,-146.9165 1967.2863,-123.8286 1872.3742,-115.9182" style=""></path>
<polygon fill="#112c5f" stroke="#112c5f" stroke-width="2" points="1872.3795,-112.4068 1862.1254,-115.0719 1871.8034,-119.3831 1872.3795,-112.4068" style=""></polygon>
</g>
<!-- k02_1 -->
<g id="node26" class="node">
<title style="">k02_1</title>
<g id="a_node26">
<ellipse fill="#d3d247" stroke="#000000" cx="2264" cy="-199" rx="27" ry="18" style=""></ellipse>
<text text-anchor="middle" x="2264" y="-194.8" font-family="Times,serif" font-size="14.00" fill="#000000" style="">k02</text>
</g>
</g>
<!-- k02_1&#45;&gt;System_1_0_1 -->
<g id="edge24" class="edge">
<title style="">k02_1-&gt;System_1_0_1</title>
<path fill="none" stroke="#112c5f" stroke-width="2" d="M2246.9746,-184.8294C2241.2583,-180.7342 2234.6406,-176.6576 2228,-174 2163.3827,-148.14 1956.47,-125.0921 1872.2139,-116.5339" style=""></path>
<polygon fill="#112c5f" stroke="#112c5f" stroke-width="2" points="1872.397,-113.0348 1862.0969,-115.5163 1871.6964,-119.9996 1872.397,-113.0348" style=""></polygon>
</g>
<!-- k034_1 -->
<g id="node27" class="node">
<title style="">k034_1</title>
<g id="a_node27">
<ellipse fill="#d3d247" stroke="#000000" cx="2189" cy="-199" rx="30.2015" ry="18" style=""></ellipse>
<text text-anchor="middle" x="2189" y="-194.8" font-family="Times,serif" font-size="14.00" fill="#000000" style="">k034</text>
</g>
</g>
<!-- k034_1&#45;&gt;System_1_0_1 -->
<g id="edge25" class="edge">
<title style="">k034_1-&gt;System_1_0_1</title>
<path fill="none" stroke="#112c5f" stroke-width="2" d="M2169.9471,-184.7527C2163.8373,-180.7536 2156.8687,-176.7511 2150,-174 2054.1952,-135.6278 1932.0118,-120.821 1872.2373,-115.5873" style=""></path>
<polygon fill="#112c5f" stroke="#112c5f" stroke-width="2" points="1872.4215,-112.0906 1862.1646,-114.7451 1871.8381,-119.0662 1872.4215,-112.0906" style=""></polygon>
</g>
<!-- k0TGF_1 -->
<g id="node28" class="node">
<title style="">k0TGF_1</title>
<g id="a_node28">
<ellipse fill="#d3d247" stroke="#000000" cx="2102" cy="-199" rx="38.8652" ry="18" style=""></ellipse>
<text text-anchor="middle" x="2102" y="-194.8" font-family="Times,serif" font-size="14.00" fill="#000000" style="">k0TGF</text>
</g>
</g>
<!-- k0TGF_1&#45;&gt;System_1_0_1 -->
<g id="edge26" class="edge">
<title style="">k0TGF_1-&gt;System_1_0_1</title>
<path fill="none" stroke="#112c5f" stroke-width="2" d="M2077.0506,-184.7591C2069.764,-180.9442 2061.6892,-177.0401 2054,-174 1991.7426,-149.3854 1915.8154,-130.5196 1871.9757,-120.6504" style=""></path>
<polygon fill="#112c5f" stroke="#112c5f" stroke-width="2" points="1872.5951,-117.2028 1862.0742,-118.452 1871.0778,-124.0364 1872.5951,-117.2028" style=""></polygon>
</g>
<!-- k0snail_1 -->
<g id="node29" class="node">
<title style="">k0snail_1</title>
<g id="a_node29">
<ellipse fill="#d3d247" stroke="#000000" cx="2006" cy="-199" rx="38.8632" ry="18" style=""></ellipse>
<text text-anchor="middle" x="2006" y="-194.8" font-family="Times,serif" font-size="14.00" fill="#000000" style="">k0snail</text>
</g>
</g>
<!-- k0snail_1&#45;&gt;System_1_0_1 -->
<g id="edge27" class="edge">
<title style="">k0snail_1-&gt;System_1_0_1</title>
<path fill="none" stroke="#112c5f" stroke-width="2" d="M1980.133,-185.428C1972.9759,-181.6999 1965.1973,-177.6733 1958,-174 1928.9519,-159.1747 1895.8501,-142.6466 1871.4626,-130.5384" style=""></path>
<polygon fill="#112c5f" stroke="#112c5f" stroke-width="2" points="1872.7551,-127.2726 1862.2414,-125.9644 1869.6446,-133.5435 1872.7551,-127.2726" style=""></polygon>
</g>
<!-- k0zeb_1 -->
<g id="node30" class="node">
<title style="">k0zeb_1</title>
<g id="a_node30">
<ellipse fill="#d3d247" stroke="#000000" cx="1915" cy="-199" rx="34.191" ry="18" style=""></ellipse>
<text text-anchor="middle" x="1915" y="-194.8" font-family="Times,serif" font-size="14.00" fill="#000000" style="">k0zeb</text>
</g>
</g>
<!-- k0zeb_1&#45;&gt;System_1_0_1 -->
<g id="edge28" class="edge">
<title style="">k0zeb_1-&gt;System_1_0_1</title>
<path fill="none" stroke="#112c5f" stroke-width="2" d="M1899.768,-182.4183C1890.1883,-171.9898 1877.4994,-158.1766 1865.9644,-145.6195" style=""></path>
<polygon fill="#112c5f" stroke="#112c5f" stroke-width="2" points="1868.3121,-143.0014 1858.9695,-138.0047 1863.1569,-147.7369 1868.3121,-143.0014" style=""></polygon>
</g>
<!-- k2_1 -->
<g id="node31" class="node">
<title style="">k2_1</title>
<g id="a_node31">
<ellipse fill="#d3d247" stroke="#000000" cx="1836" cy="-199" rx="27" ry="18" style=""></ellipse>
<text text-anchor="middle" x="1836" y="-194.8" font-family="Times,serif" font-size="14.00" fill="#000000" style="">k2</text>
</g>
</g>
<!-- k2_1&#45;&gt;System_1_0_1 -->
<g id="edge29" class="edge">
<title style="">k2_1-&gt;System_1_0_1</title>
<path fill="none" stroke="#112c5f" stroke-width="2" d="M1836,-180.7616C1836,-171.2487 1836,-159.283 1836,-148.064" style=""></path>
<polygon fill="#112c5f" stroke="#112c5f" stroke-width="2" points="1839.5001,-148.0625 1836,-138.0626 1832.5001,-148.0626 1839.5001,-148.0625" style=""></polygon>
</g>
<!-- k34_1 -->
<g id="node32" class="node">
<title style="">k34_1</title>
<g id="a_node32">
<ellipse fill="#d3d247" stroke="#000000" cx="1764" cy="-199" rx="27" ry="18" style=""></ellipse>
<text text-anchor="middle" x="1764" y="-194.8" font-family="Times,serif" font-size="14.00" fill="#000000" style="">k34</text>
</g>
</g>
<!-- k34_1&#45;&gt;System_1_0_1 -->
<g id="edge30" class="edge">
<title style="">k34_1-&gt;System_1_0_1</title>
<path fill="none" stroke="#112c5f" stroke-width="2" d="M1777.2059,-183.2263C1785.947,-172.7855 1797.7339,-158.7068 1808.4589,-145.8963" style=""></path>
<polygon fill="#112c5f" stroke="#112c5f" stroke-width="2" points="1811.2272,-148.042 1814.9629,-138.1276 1805.8598,-143.5485 1811.2272,-148.042" style=""></polygon>
</g>
<!-- kSNAIL_1 -->
<g id="node33" class="node">
<title style="">kSNAIL_1</title>
<g id="a_node33">
<ellipse fill="#d3d247" stroke="#000000" cx="1675" cy="-199" rx="44.0814" ry="18" style=""></ellipse>
<text text-anchor="middle" x="1675" y="-194.8" font-family="Times,serif" font-size="14.00" fill="#000000" style="">kSNAIL</text>
</g>
</g>
<!-- kSNAIL_1&#45;&gt;System_1_0_1 -->
<g id="edge31" class="edge">
<title style="">kSNAIL_1-&gt;System_1_0_1</title>
<path fill="none" stroke="#112c5f" stroke-width="2" d="M1701.9478,-184.6055C1729.0075,-170.1513 1770.842,-147.8049 1800.573,-131.9237" style=""></path>
<polygon fill="#112c5f" stroke="#112c5f" stroke-width="2" points="1802.5951,-134.8117 1809.7665,-127.0129 1799.297,-128.6374 1802.5951,-134.8117" style=""></polygon>
</g>
<!-- kTGF_1 -->
<g id="node34" class="node">
<title style="">kTGF_1</title>
<g id="a_node34">
<ellipse fill="#d3d247" stroke="#000000" cx="1579" cy="-199" rx="34.2084" ry="18" style=""></ellipse>
<text text-anchor="middle" x="1579" y="-194.8" font-family="Times,serif" font-size="14.00" fill="#000000" style="">kTGF</text>
</g>
</g>
<!-- kTGF_1&#45;&gt;System_1_0_1 -->
<g id="edge32" class="edge">
<title style="">kTGF_1-&gt;System_1_0_1</title>
<path fill="none" stroke="#112c5f" stroke-width="2" d="M1600.7716,-184.9342C1607.4105,-181.0349 1614.8483,-177.0419 1622,-174 1682.3936,-148.3125 1756.8704,-129.8553 1800.1443,-120.3441" style=""></path>
<polygon fill="#112c5f" stroke="#112c5f" stroke-width="2" points="1800.892,-123.7634 1809.927,-118.23 1799.4133,-116.9214 1800.892,-123.7634" style=""></polygon>
</g>
<!-- kZEB_1 -->
<g id="node35" class="node">
<title style="">kZEB_1</title>
<g id="a_node35">
<ellipse fill="#d3d247" stroke="#000000" cx="1493" cy="-199" rx="34.2084" ry="18" style=""></ellipse>
<text text-anchor="middle" x="1493" y="-194.8" font-family="Times,serif" font-size="14.00" fill="#000000" style="">kZEB</text>
</g>
</g>
<!-- kZEB_1&#45;&gt;System_1_0_1 -->
<g id="edge33" class="edge">
<title style="">kZEB_1-&gt;System_1_0_1</title>
<path fill="none" stroke="#112c5f" stroke-width="2" d="M1514.1894,-184.8443C1520.9332,-180.8489 1528.575,-176.8255 1536,-174 1627.4227,-139.2106 1742.4493,-122.9151 1799.8888,-116.5031" style=""></path>
<polygon fill="#112c5f" stroke="#112c5f" stroke-width="2" points="1800.3591,-119.9727 1809.9252,-115.4186 1799.607,-113.0132 1800.3591,-119.9727" style=""></polygon>
</g>
<!-- kd2_1 -->
<g id="node36" class="node">
<title style="">kd2_1</title>
<g id="a_node36">
<ellipse fill="#d3d247" stroke="#000000" cx="1414" cy="-199" rx="27" ry="18" style=""></ellipse>
<text text-anchor="middle" x="1414" y="-194.8" font-family="Times,serif" font-size="14.00" fill="#000000" style="">kd2</text>
</g>
</g>
<!-- kd2_1&#45;&gt;System_1_0_1 -->
<g id="edge34" class="edge">
<title style="">kd2_1-&gt;System_1_0_1</title>
<path fill="none" stroke="#112c5f" stroke-width="2" d="M1431.0292,-184.8388C1436.7457,-180.7441 1443.3625,-176.6654 1450,-174 1513.4708,-148.5119 1716.4051,-125.3334 1799.7469,-116.6371" style=""></path>
<polygon fill="#112c5f" stroke="#112c5f" stroke-width="2" points="1800.1768,-120.1114 1809.7639,-115.6017 1799.457,-113.1485 1800.1768,-120.1114" style=""></polygon>
</g>
<!-- kd34_1 -->
<g id="node37" class="node">
<title style="">kd34_1</title>
<g id="a_node37">
<ellipse fill="#d3d247" stroke="#000000" cx="1339" cy="-199" rx="30.2015" ry="18" style=""></ellipse>
<text text-anchor="middle" x="1339" y="-194.8" font-family="Times,serif" font-size="14.00" fill="#000000" style="">kd34</text>
</g>
</g>
<!-- kd34_1&#45;&gt;System_1_0_1 -->
<g id="edge35" class="edge">
<title style="">kd34_1-&gt;System_1_0_1</title>
<path fill="none" stroke="#112c5f" stroke-width="2" d="M1357.956,-184.4998C1364.0618,-180.4904 1371.0526,-176.5457 1378,-174 1455.6913,-145.5326 1705.594,-123.3328 1799.6995,-115.7859" style=""></path>
<polygon fill="#112c5f" stroke="#112c5f" stroke-width="2" points="1800.1751,-119.2592 1809.8669,-114.9791 1799.6214,-112.2812 1800.1751,-119.2592" style=""></polygon>
</g>
<!-- kdSNAIL_1 -->
<g id="node38" class="node">
<title style="">kdSNAIL_1</title>
<g id="a_node38">
<ellipse fill="#d3d247" stroke="#000000" cx="1242" cy="-199" rx="49.2376" ry="18" style=""></ellipse>
<text text-anchor="middle" x="1242" y="-194.8" font-family="Times,serif" font-size="14.00" fill="#000000" style="">kdSNAIL</text>
</g>
</g>
<!-- kdSNAIL_1&#45;&gt;System_1_0_1 -->
<g id="edge36" class="edge">
<title style="">kdSNAIL_1-&gt;System_1_0_1</title>
<path fill="none" stroke="#112c5f" stroke-width="2" d="M1271.207,-184.4297C1280.2415,-180.4674 1290.3576,-176.5666 1300,-174 1395.1562,-148.6717 1695.6277,-123.7962 1799.921,-115.7185" style=""></path>
<polygon fill="#112c5f" stroke="#112c5f" stroke-width="2" points="1800.254,-119.2034 1809.9559,-114.9464 1799.7169,-112.224 1800.254,-119.2034" style=""></polygon>
</g>
<!-- kdTGF_1 -->
<g id="node39" class="node">
<title style="">kdTGF_1</title>
<g id="a_node39">
<ellipse fill="#d3d247" stroke="#000000" cx="1136" cy="-199" rx="38.8652" ry="18" style=""></ellipse>
<text text-anchor="middle" x="1136" y="-194.8" font-family="Times,serif" font-size="14.00" fill="#000000" style="">kdTGF</text>
</g>
</g>
<!-- kdTGF_1&#45;&gt;System_1_0_1 -->
<g id="edge37" class="edge">
<title style="">kdTGF_1-&gt;System_1_0_1</title>
<path fill="none" stroke="#112c5f" stroke-width="2" d="M1159.6498,-184.3756C1167.1776,-180.3611 1175.7087,-176.4447 1184,-174 1301.0993,-139.4726 1680.609,-119.9451 1799.8206,-114.5504" style=""></path>
<polygon fill="#112c5f" stroke="#112c5f" stroke-width="2" points="1800.055,-118.0436 1809.8888,-114.1006 1799.7425,-111.0505 1800.055,-118.0436" style=""></polygon>
</g>
<!-- kdZEB_1 -->
<g id="node40" class="node">
<title style="">kdZEB_1</title>
<g id="a_node40">
<ellipse fill="#d3d247" stroke="#000000" cx="1040" cy="-199" rx="38.8652" ry="18" style=""></ellipse>
<text text-anchor="middle" x="1040" y="-194.8" font-family="Times,serif" font-size="14.00" fill="#000000" style="">kdZEB</text>
</g>
</g>
<!-- kdZEB_1&#45;&gt;System_1_0_1 -->
<g id="edge38" class="edge">
<title style="">kdZEB_1-&gt;System_1_0_1</title>
<path fill="none" stroke="#112c5f" stroke-width="2" d="M1063.632,-184.3147C1071.1591,-180.2977 1079.6943,-176.3953 1088,-174 1224.0746,-134.7573 1668.4279,-118.1755 1799.372,-114.0662" style=""></path>
<polygon fill="#112c5f" stroke="#112c5f" stroke-width="2" points="1799.7712,-117.5557 1809.6586,-113.749 1799.5554,-110.559 1799.7712,-117.5557" style=""></polygon>
</g>
<!-- kdecad_1 -->
<g id="node41" class="node">
<title style="">kdecad_1</title>
<g id="a_node41">
<ellipse fill="#d3d247" stroke="#000000" cx="945" cy="-199" rx="38.2645" ry="18" style=""></ellipse>
<text text-anchor="middle" x="945" y="-194.8" font-family="Times,serif" font-size="14.00" fill="#000000" style="">kdecad</text>
</g>
</g>
<!-- kdecad_1&#45;&gt;System_1_0_1 -->
<g id="edge39" class="edge">
<title style="">kdecad_1-&gt;System_1_0_1</title>
<path fill="none" stroke="#112c5f" stroke-width="2" d="M968.0931,-184.2637C975.4614,-180.2447 983.8295,-176.3539 992,-174 1147.1259,-129.3087 1657.9403,-116.3941 1799.4009,-113.634" style=""></path>
<polygon fill="#112c5f" stroke="#112c5f" stroke-width="2" points="1799.7604,-117.1279 1809.6921,-113.4386 1799.6274,-110.1292 1799.7604,-117.1279" style=""></polygon>
</g>
<!-- kdncad_1 -->
<g id="node42" class="node">
<title style="">kdncad_1</title>
<g id="a_node42">
<ellipse fill="#d3d247" stroke="#000000" cx="850" cy="-199" rx="38.8478" ry="18" style=""></ellipse>
<text text-anchor="middle" x="850" y="-194.8" font-family="Times,serif" font-size="14.00" fill="#000000" style="">kdncad</text>
</g>
</g>
<!-- kdncad_1&#45;&gt;System_1_0_1 -->
<g id="edge40" class="edge">
<title style="">kdncad_1-&gt;System_1_0_1</title>
<path fill="none" stroke="#112c5f" stroke-width="2" d="M873.1188,-184.493C880.7628,-180.3798 889.4939,-176.3776 898,-174 1072.3956,-125.254 1649.3329,-115.1815 1799.8352,-113.3636" style=""></path>
<polygon fill="#112c5f" stroke="#112c5f" stroke-width="2" points="1799.9644,-116.8625 1809.9231,-113.2466 1799.8831,-109.8629 1799.9644,-116.8625" style=""></polygon>
</g>
<!-- kdsnail_1 -->
<g id="node43" class="node">
<title style="">kdsnail_1</title>
<g id="a_node43">
<ellipse fill="#d3d247" stroke="#000000" cx="754" cy="-199" rx="38.8632" ry="18" style=""></ellipse>
<text text-anchor="middle" x="754" y="-194.8" font-family="Times,serif" font-size="14.00" fill="#000000" style="">kdsnail</text>
</g>
</g>
<!-- kdsnail_1&#45;&gt;System_1_0_1 -->
<g id="edge41" class="edge">
<title style="">kdsnail_1-&gt;System_1_0_1</title>
<path fill="none" stroke="#112c5f" stroke-width="2" d="M777.1102,-184.4622C784.7538,-180.3474 793.4868,-176.352 802,-174 899.7284,-147.0002 1627.7595,-120.2299 1799.6913,-114.2394" style=""></path>
<polygon fill="#112c5f" stroke="#112c5f" stroke-width="2" points="1799.8757,-117.7352 1809.7484,-113.8907 1799.6331,-110.7394 1799.8757,-117.7352" style=""></polygon>
</g>
<!-- kdzeb_1 -->
<g id="node44" class="node">
<title style="">kdzeb_1</title>
<g id="a_node44">
<ellipse fill="#d3d247" stroke="#000000" cx="663" cy="-199" rx="34.191" ry="18" style=""></ellipse>
<text text-anchor="middle" x="663" y="-194.8" font-family="Times,serif" font-size="14.00" fill="#000000" style="">kdzeb</text>
</g>
</g>
<!-- kdzeb_1&#45;&gt;System_1_0_1 -->
<g id="edge42" class="edge">
<title style="">kdzeb_1-&gt;System_1_0_1</title>
<path fill="none" stroke="#112c5f" stroke-width="2" d="M683.5213,-184.4278C690.3589,-180.3111 698.2224,-176.3233 706,-174 812.82,-142.0911 1618.5364,-118.8119 1799.844,-113.9439" style=""></path>
<polygon fill="#112c5f" stroke="#112c5f" stroke-width="2" points="1800.0222,-117.4405 1809.9253,-113.6749 1799.8355,-110.4429 1800.0222,-117.4405" style=""></polygon>
</g>
<!-- kecad1_1 -->
<g id="node45" class="node">
<title style="">kecad1_1</title>
<g id="a_node45">
<ellipse fill="#d3d247" stroke="#000000" cx="573" cy="-199" rx="38.2645" ry="18" style=""></ellipse>
<text text-anchor="middle" x="573" y="-194.8" font-family="Times,serif" font-size="14.00" fill="#000000" style="">kecad1</text>
</g>
</g>
<!-- kecad1_1&#45;&gt;System_1_0_1 -->
<g id="edge43" class="edge">
<title style="">kecad1_1-&gt;System_1_0_1</title>
<path fill="none" stroke="#112c5f" stroke-width="2" d="M595.5827,-184.4154C603.0646,-180.298 611.6259,-176.313 620,-174 736.1683,-141.9136 1610.4373,-118.5841 1799.8675,-113.8744" style=""></path>
<polygon fill="#112c5f" stroke="#112c5f" stroke-width="2" points="1799.9568,-117.3734 1809.8672,-113.6273 1799.7838,-110.3755 1799.9568,-117.3734" style=""></polygon>
</g>
<!-- kecad2_1 -->
<g id="node46" class="node">
<title style="">kecad2_1</title>
<g id="a_node46">
<ellipse fill="#d3d247" stroke="#000000" cx="478" cy="-199" rx="38.2645" ry="18" style=""></ellipse>
<text text-anchor="middle" x="478" y="-194.8" font-family="Times,serif" font-size="14.00" fill="#000000" style="">kecad2</text>
</g>
</g>
<!-- kecad2_1&#45;&gt;System_1_0_1 -->
<g id="edge44" class="edge">
<title style="">kecad2_1-&gt;System_1_0_1</title>
<path fill="none" stroke="#112c5f" stroke-width="2" d="M501.0929,-184.3988C508.7356,-180.2806 517.4724,-176.2992 526,-174 651.8709,-140.0633 1601.089,-118.0243 1799.6513,-113.7582" style=""></path>
<polygon fill="#112c5f" stroke="#112c5f" stroke-width="2" points="1799.9161,-117.2534 1809.8391,-113.5408 1799.7667,-110.255 1799.9161,-117.2534" style=""></polygon>
</g>
<!-- kncad1_1 -->
<g id="node47" class="node">
<title style="">kncad1_1</title>
<g id="a_node47">
<ellipse fill="#d3d247" stroke="#000000" cx="383" cy="-199" rx="38.8478" ry="18" style=""></ellipse>
<text text-anchor="middle" x="383" y="-194.8" font-family="Times,serif" font-size="14.00" fill="#000000" style="">kncad1</text>
</g>
</g>
<!-- kncad1_1&#45;&gt;System_1_0_1 -->
<g id="edge45" class="edge">
<title style="">kncad1_1-&gt;System_1_0_1</title>
<path fill="none" stroke="#112c5f" stroke-width="2" d="M406.0886,-184.3827C413.731,-180.2636 422.4688,-176.2858 431,-174 566.6058,-137.6671 1592.6554,-117.3811 1799.6652,-113.6355" style=""></path>
<polygon fill="#112c5f" stroke="#112c5f" stroke-width="2" points="1799.7757,-117.1341 1809.7113,-113.4551 1799.65,-110.1353 1799.7757,-117.1341" style=""></polygon>
</g>
<!-- kncad2_1 -->
<g id="node48" class="node">
<title style="">kncad2_1</title>
<g id="a_node48">
<ellipse fill="#d3d247" stroke="#000000" cx="287" cy="-199" rx="38.8478" ry="18" style=""></ellipse>
<text text-anchor="middle" x="287" y="-194.8" font-family="Times,serif" font-size="14.00" fill="#000000" style="">kncad2</text>
</g>
</g>
<!-- kncad2_1&#45;&gt;System_1_0_1 -->
<g id="edge46" class="edge">
<title style="">kncad2_1-&gt;System_1_0_1</title>
<path fill="none" stroke="#112c5f" stroke-width="2" d="M310.0848,-184.3685C317.727,-180.2486 326.4656,-176.2739 335,-174 480.4448,-135.2468 1584.1678,-116.7821 1799.6047,-113.5284" style=""></path>
<polygon fill="#112c5f" stroke="#112c5f" stroke-width="2" points="1799.8007,-117.0259 1809.7472,-113.3766 1799.6959,-110.0267 1799.8007,-117.0259" style=""></polygon>
</g>
<!-- ksnail_1 -->
<g id="node49" class="node">
<title style="">ksnail_1</title>
<g id="a_node49">
<ellipse fill="#d3d247" stroke="#000000" cx="196" cy="-199" rx="34.2065" ry="18" style=""></ellipse>
<text text-anchor="middle" x="196" y="-194.8" font-family="Times,serif" font-size="14.00" fill="#000000" style="">ksnail</text>
</g>
</g>
<!-- ksnail_1&#45;&gt;System_1_0_1 -->
<g id="edge47" class="edge">
<title style="">ksnail_1-&gt;System_1_0_1</title>
<path fill="none" stroke="#112c5f" stroke-width="2" d="M216.4996,-184.3541C223.3361,-180.2335 231.2044,-176.262 239,-174 393.3555,-129.2126 1576.5659,-115.5278 1799.7516,-113.3338" style=""></path>
<polygon fill="#112c5f" stroke="#112c5f" stroke-width="2" points="1799.9703,-116.8319 1809.9359,-113.2351 1799.9024,-109.8322 1799.9703,-116.8319" style=""></polygon>
</g>
<!-- kzeb_1 -->
<g id="node50" class="node">
<title style="">kzeb_1</title>
<g id="a_node50">
<ellipse fill="#d3d247" stroke="#000000" cx="115" cy="-199" rx="29.0356" ry="18" style=""></ellipse>
<text text-anchor="middle" x="115" y="-194.8" font-family="Times,serif" font-size="14.00" fill="#000000" style="">kzeb</text>
</g>
</g>
<!-- kzeb_1&#45;&gt;System_1_0_1 -->
<g id="edge48" class="edge">
<title style="">kzeb_1-&gt;System_1_0_1</title>
<path fill="none" stroke="#112c5f" stroke-width="2" d="M132.897,-184.3492C138.9269,-180.2283 145.9286,-176.2579 153,-174 314.7625,-122.3494 1568.8912,-114.2079 1799.5936,-113.1435" style=""></path>
<polygon fill="#112c5f" stroke="#112c5f" stroke-width="2" points="1799.8131,-116.6426 1809.7974,-113.098 1799.7818,-109.6427 1799.8131,-116.6426" style=""></polygon>
</g>
</g>
</svg>