<?xml version="1.0" encoding="UTF-8" standalone="no"?> <svg xmlns="http://www.w3.org/2000/svg" xmlns:xlink="http://www.w3.org/1999/xlink" width="1306pt" height="456pt" viewBox="0.00 0.00 1306.00 456.40">
<g id="graph0" class="graph" transform="scale(1 1) rotate(0) translate(4 452.4)">
<title>%0</title>
<polygon fill="#ffffff" stroke="transparent" points="-4,4 -4,-452.4 1302,-452.4 1302,4 -4,4"></polygon>
<g id="clust1" class="cluster">
<title>cluster</title>
<polygon fill="#234178" fill-opacity="0.184314" stroke="#000000" points="8,-8 8,-440.4 1290,-440.4 1290,-8 8,-8"></polygon>
<text text-anchor="middle" x="649" y="-423.8" font-family="Times,serif" font-size="14.00" fill="#000000">Global</text>
</g>
<g id="clust2" class="cluster">
<title>cluster_1</title>
<polygon fill="#234178" fill-opacity="0.184314" stroke="#000000" points="82,-16 82,-407.6 758,-407.6 758,-16 82,-16"></polygon>
<text text-anchor="middle" x="420" y="-391" font-family="Times,serif" font-size="14.00" fill="#000000">CellType[Walker]</text>
</g>
<g id="clust3" class="cluster">
<title>cluster_cpm1</title>
<polygon fill="#234178" fill-opacity="0.184314" stroke="#000000" points="428,-24 428,-101.8 550,-101.8 550,-24 428,-24"></polygon>
<text text-anchor="middle" x="489" y="-85.2" font-family="Times,serif" font-size="14.00" fill="#000000">CPM components</text>
</g>
<g id="clust4" class="cluster">
<title>cluster_3</title>
<polygon fill="#234178" fill-opacity="0.184314" stroke="#000000" points="144,-213.5 144,-303.5 280,-303.5 280,-213.5 144,-213.5"></polygon>
</g>
<!-- DisplacementTracker_0_14810508739002408782_10 -->
<g id="node2" class="node">
<title>DisplacementTracker_0_14810508739002408782_10</title>
<g id="a_node2">">
<polygon fill="#fffea3" stroke="transparent" points="1013.5,-185.5 876.5,-185.5 876.5,-111.5 1013.5,-111.5 1013.5,-185.5"></polygon>
<text text-anchor="start" x="880.952" y="-168" font-family="times" font-size="15.00" fill="#000000">DisplacementTracker</text>
<text text-anchor="start" x="928.0138" y="-145" font-family="times" font-style="italic" font-size="15.00" fill="#000000">'data'</text>
<text text-anchor="start" x="938" y="-120" font-family="times" font-size="15.00" fill="#000000">10</text>
<polygon fill="#000000" stroke="#000000" points="877,-136.5 877,-136.5 1014,-136.5 1014,-136.5 877,-136.5"></polygon>
<polygon fill="none" stroke="#000000" points="876.5,-111.5 876.5,-185.5 1013.5,-185.5 1013.5,-111.5 876.5,-111.5"></polygon>
</g>
</g>
<!-- Gnuplotter_0_200 -->
<g id="node1" class="node">
<title>Gnuplotter_0_200</title>
<g id="a_node1">">
<polygon fill="#fffea3" stroke="transparent" points="838,-173.5 766,-173.5 766,-123.5 838,-123.5 838,-173.5"></polygon>
<text text-anchor="start" x="769.507" y="-156" font-family="times" font-size="15.00" fill="#000000">Gnuplotter</text>
<text text-anchor="start" x="790.75" y="-132" font-family="times" font-size="15.00" fill="#000000">200</text>
<polygon fill="#000000" stroke="#000000" points="766,-148.5 766,-148.5 838,-148.5 838,-148.5 766,-148.5"></polygon>
<polygon fill="none" stroke="#000000" points="766,-123.5 766,-173.5 838,-173.5 838,-123.5 766,-123.5"></polygon>
</g>
</g>
<!-- CPM_0_1 -->
<g id="node4" class="node">
<title>CPM_0_1</title>
<g id="a_node4">
<polygon fill="#fffea3" stroke="#000000" points="1060,-332 1060,-381.6 1114,-381.6 1114,-332 1060,-332"></polygon>
<text text-anchor="middle" x="1086.7819" y="-365" font-family="Times,serif" font-size="14.00" fill="#000000">CPM</text>
<polyline fill="none" stroke="#000000" points="1060,-356.8 1113.5638,-356.8 "></polyline>
<text text-anchor="middle" x="1086.7819" y="-340.2" font-family="Times,serif" font-size="14.00" fill="#000000">1</text>
</g>
</g>
<!-- cell_center_0 -->
<g id="node5" class="node">
<title>cell_center_0</title>
<ellipse fill="#b5b426" stroke="#000000" cx="1161" cy="-258.5" rx="50.9588" ry="18"></ellipse>
<ellipse fill="none" stroke="#000000" cx="1161" cy="-258.5" rx="54.9572" ry="22"></ellipse>
<text text-anchor="middle" x="1161" y="-254.3" font-family="Times,serif" font-size="14.00" fill="#000000">cell.center</text>
</g>
<!-- CPM_0_1&#45;&gt;cell_center_0 -->
<g id="edge4" class="edge">
<title>CPM_0_1-&gt;cell_center_0</title>
<path fill="none" stroke="#8f100d" stroke-width="3" d="M1105.6733,-331.9948C1115.7432,-318.6182 1128.2359,-302.0231 1138.8009,-287.9888"></path>
<polygon fill="#8f100d" stroke="#8f100d" stroke-width="3" points="1141.873,-289.7274 1145.0911,-279.6331 1136.2805,-285.5174 1141.873,-289.7274"></polygon>
</g>
<!-- cell_type_0 -->
<g id="node9" class="node">
<title>cell_type_0</title>
<ellipse fill="#d3d247" stroke="#000000" cx="1020" cy="-258.5" rx="44.0361" ry="18"></ellipse>
<ellipse fill="none" stroke="#000000" cx="1020" cy="-258.5" rx="48.0377" ry="22"></ellipse>
<text text-anchor="middle" x="1020" y="-254.3" font-family="Times,serif" font-size="14.00" fill="#000000">cell.type</text>
</g>
<!-- CPM_0_1&#45;&gt;cell_type_0 -->
<g id="edge5" class="edge">
<title>CPM_0_1-&gt;cell_type_0</title>
<path fill="none" stroke="#8f100d" stroke-width="3" d="M1070.0931,-331.9948C1060.9758,-318.6182 1049.6648,-302.0231 1040.0992,-287.9888"></path>
<polygon fill="#8f100d" stroke="#8f100d" stroke-width="3" points="1042.9283,-285.925 1034.404,-279.6331 1037.144,-289.8675 1042.9283,-285.925"></polygon>
</g>
<!-- DirectedMotion_1 -->
<g id="node12" class="node">
<title>DirectedMotion_1</title>
<g id="a_node12">
<path fill="#fffea3" stroke="#000000" d="M448.291,-32.5C448.291,-32.5 529.709,-32.5 529.709,-32.5 535.709,-32.5 541.709,-38.5 541.709,-44.5 541.709,-44.5 541.709,-56.5 541.709,-56.5 541.709,-62.5 535.709,-68.5 529.709,-68.5 529.709,-68.5 448.291,-68.5 448.291,-68.5 442.291,-68.5 436.291,-62.5 436.291,-56.5 436.291,-56.5 436.291,-44.5 436.291,-44.5 436.291,-38.5 442.291,-32.5 448.291,-32.5"></path>
<text text-anchor="middle" x="489" y="-46.3" font-family="Times,serif" font-size="14.00" fill="#000000">DirectedMotion</text>
</g>
</g>
<!-- CPM_0_1&#45;&gt;DirectedMotion_1 -->
<g id="edge3" class="edge">
<title>CPM_0_1-&gt;DirectedMotion_1</title>
<path fill="none" stroke="#38568c" stroke-dasharray="5,2" d="M1088.8692,-331.9494C1091.0325,-295.4957 1092.5298,-230.0488 1077,-213.5 1012.8682,-145.1603 938.8444,-246.8538 868,-185.5 842.1568,-163.1188 873.9397,-132.5486 847,-111.5 820.6322,-90.8982 577.0435,-114.2898 546,-101.8"></path>
</g>
<!-- Logger_0_10 -->
<g id="node3" class="node">
<title>Logger_0_10</title>
<g id="a_node3">">
<polygon fill="#fffea3" stroke="transparent" points="1182.5,-75.5 1131.5,-75.5 1131.5,-25.5 1182.5,-25.5 1182.5,-75.5"></polygon>
<text text-anchor="start" x="1135.8423" y="-58" font-family="times" font-size="15.00" fill="#000000">Logger</text>
<text text-anchor="start" x="1150" y="-34" font-family="times" font-size="15.00" fill="#000000">10</text>
<polygon fill="#000000" stroke="#000000" points="1132,-50.5 1132,-50.5 1183,-50.5 1183,-50.5 1132,-50.5"></polygon>
<polygon fill="none" stroke="#000000" points="1131.5,-25.5 1131.5,-75.5 1182.5,-75.5 1182.5,-25.5 1131.5,-25.5"></polygon>
</g>
</g>
<!-- cell_center_0&#45;&gt;DisplacementTracker_0_14810508739002408782_10 -->
<g id="edge8" class="edge">
<title>cell_center_0-&gt;DisplacementTracker_0_14810508739002408782_10</title>
<path fill="none" stroke="#112c5f" stroke-width="2" d="M1133.8697,-239.0715C1121.4441,-230.6322 1106.3219,-220.987 1092,-213.5 1062.6705,-198.1674 1053.2967,-198.8198 1023,-185.5 1022.9057,-185.4585 1022.8113,-185.417 1022.7168,-185.3755"></path>
<polygon fill="#112c5f" stroke="#112c5f" stroke-width="2" points="1024.3634,-182.2775 1013.8049,-181.4008 1021.5121,-188.6705 1024.3634,-182.2775"></polygon>
</g>
<!-- cell_center_x_0 -->
<g id="node6" class="node">
<title>cell_center_x_0</title>
<ellipse fill="#d3d247" stroke="#000000" cx="1090" cy="-148.5" rx="58.4435" ry="18"></ellipse>
<text text-anchor="middle" x="1090" y="-144.3" font-family="Times,serif" font-size="14.00" fill="#000000">cell.center.x</text>
</g>
<!-- cell_center_0&#45;&gt;cell_center_x_0 -->
<g id="edge9" class="edge">
<title>cell_center_0-&gt;cell_center_x_0</title>
<path fill="none" stroke="#38568c" stroke-dasharray="5,2" d="M1147.1419,-237.0298C1133.8244,-216.397 1113.9361,-185.5841 1101.4795,-166.2851"></path>
</g>
<!-- cell_center_y_0 -->
<g id="node7" class="node">
<title>cell_center_y_0</title>
<ellipse fill="#d3d247" stroke="#000000" cx="1224" cy="-148.5" rx="58.4435" ry="18"></ellipse>
<text text-anchor="middle" x="1224" y="-144.3" font-family="Times,serif" font-size="14.00" fill="#000000">cell.center.y</text>
</g>
<!-- cell_center_0&#45;&gt;cell_center_y_0 -->
<g id="edge10" class="edge">
<title>cell_center_0-&gt;cell_center_y_0</title>
<path fill="none" stroke="#38568c" stroke-dasharray="5,2" d="M1173.2966,-237.0298C1185.1135,-216.397 1202.7609,-185.5841 1213.814,-166.2851"></path>
</g>
<!-- cell_center_x_0&#45;&gt;Logger_0_10 -->
<g id="edge12" class="edge">
<title>cell_center_x_0-&gt;Logger_0_10</title>
<path fill="none" stroke="#112c5f" stroke-width="2" d="M1102.2888,-130.5253C1111.1501,-117.564 1123.3751,-99.6827 1134.022,-84.1097"></path>
<polygon fill="#112c5f" stroke="#112c5f" stroke-width="2" points="1136.9886,-85.9719 1139.7431,-75.7414 1131.2099,-82.0212 1136.9886,-85.9719"></polygon>
</g>
<!-- cell_center_y_0&#45;&gt;Logger_0_10 -->
<g id="edge13" class="edge">
<title>cell_center_y_0-&gt;Logger_0_10</title>
<path fill="none" stroke="#112c5f" stroke-width="2" d="M1211.7112,-130.5253C1202.8499,-117.564 1190.6249,-99.6827 1179.978,-84.1097"></path>
<polygon fill="#112c5f" stroke="#112c5f" stroke-width="2" points="1182.7901,-82.0212 1174.2569,-75.7414 1177.0114,-85.9719 1182.7901,-82.0212"></polygon>
</g>
<!-- cell_id_0 -->
<g id="node8" class="node">
<title>cell_id_0</title>
<ellipse fill="#d3d247" stroke="#000000" cx="805" cy="-258.5" rx="34.8174" ry="18"></ellipse>
<ellipse fill="none" stroke="#000000" cx="805" cy="-258.5" rx="38.8075" ry="22"></ellipse>
<text text-anchor="middle" x="805" y="-254.3" font-family="Times,serif" font-size="14.00" fill="#000000">cell.id</text>
</g>
<!-- cell_id_0&#45;&gt;Gnuplotter_0_200 -->
<g id="edge14" class="edge">
<title>cell_id_0-&gt;Gnuplotter_0_200</title>
<path fill="none" stroke="#112c5f" stroke-width="2" d="M804.3929,-236.2399C803.9846,-221.2673 803.4374,-201.2053 802.9694,-184.0441"></path>
<polygon fill="#112c5f" stroke="#112c5f" stroke-width="2" points="806.4616,-183.7061 802.6901,-173.8053 799.4642,-183.897 806.4616,-183.7061"></polygon>
</g>
<!-- time_0 -->
<g id="node10" class="node">
<title>time_0</title>
<g id="a_node10">
<ellipse fill="#d3d247" stroke="#000000" cx="44" cy="-356.8" rx="28.4069" ry="18"></ellipse>
<text text-anchor="middle" x="44" y="-352.6" font-family="Times,serif" font-size="14.00" fill="#000000">time</text>
</g>
</g>
<!-- Event_3_725258311908466381_5 -->
<g id="node22" class="node">
<title>Event_3_725258311908466381_5</title>
<g id="a_node22">">
<polygon fill="#fffea3" stroke="transparent" points="272,-295.5 152,-295.5 152,-221.5 272,-221.5 272,-295.5"></polygon>
<text text-anchor="start" x="194.5048" y="-278" font-family="times" font-size="15.00" fill="#000000">Event</text>
<text text-anchor="start" x="155.5632" y="-255" font-family="times" font-style="italic" font-size="15.00" fill="#000000">'Change direction'</text>
<text text-anchor="start" x="208.25" y="-230" font-family="times" font-size="15.00" fill="#000000">5</text>
<polygon fill="#000000" stroke="#000000" points="152,-246.5 152,-246.5 272,-246.5 272,-246.5 152,-246.5"></polygon>
<polygon fill="none" stroke="#000000" points="152,-221.5 152,-295.5 272,-295.5 272,-221.5 152,-221.5"></polygon>
</g>
</g>
<!-- time_0&#45;&gt;Event_3_725258311908466381_5 -->
<g id="edge20" class="edge">
<title>time_0-&gt;Event_3_725258311908466381_5</title>
<path fill="none" stroke="#112c5f" stroke-width="2" d="M62.016,-342.6594C67.0845,-338.8851 72.6703,-334.9107 78,-331.5 98.5987,-318.318 121.7657,-305.1506 142.9703,-293.7013"></path>
<polygon fill="#112c5f" stroke="#112c5f" stroke-width="2" points="144.7624,-296.7119 151.9247,-288.9046 141.457,-290.5414 144.7624,-296.7119"></polygon>
</g>
<!-- velocity_0 -->
<g id="node11" class="node">
<title>velocity_0</title>
<ellipse fill="#b5b426" stroke="#000000" cx="908" cy="-258.5" rx="42.2804" ry="18"></ellipse>
<ellipse fill="none" stroke="#000000" cx="908" cy="-258.5" rx="46.2932" ry="22"></ellipse>
<text text-anchor="middle" x="908" y="-254.3" font-family="Times,serif" font-size="14.00" fill="#000000">velocity</text>
</g>
<!-- velocity_0&#45;&gt;Gnuplotter_0_200 -->
<g id="edge21" class="edge">
<title>velocity_0-&gt;Gnuplotter_0_200</title>
<path fill="none" stroke="#112c5f" stroke-width="2" d="M888.558,-238.3243C873.1826,-222.3687 851.4063,-199.7707 833.5428,-181.2331"></path>
<polygon fill="#112c5f" stroke="#112c5f" stroke-width="2" points="835.6159,-178.3404 826.1566,-173.5682 830.5753,-183.1977 835.6159,-178.3404"></polygon>
</g>
<!-- BiasDirection_1 -->
<g id="node13" class="node">
<title>BiasDirection_1</title>
<g id="a_node13">
<ellipse fill="#b5b426" stroke="#000000" cx="424" cy="-148.5" rx="64.8409" ry="18"></ellipse>
<text text-anchor="middle" x="424" y="-144.3" font-family="Times,serif" font-size="14.00" fill="#000000">BiasDirection</text>
</g>
</g>
<!-- BiasDirection_1&#45;&gt;DirectedMotion_1 -->
<g id="edge1" class="edge">
<title>BiasDirection_1-&gt;DirectedMotion_1</title>
<path fill="none" stroke="#112c5f" stroke-width="2" d="M435.922,-130.5253C445.8468,-115.5618 460.1209,-94.0408 471.3674,-77.0846"></path>
<polygon fill="#112c5f" stroke="#112c5f" stroke-width="2" points="474.3228,-78.9608 476.9335,-68.6926 468.4893,-75.0916 474.3228,-78.9608"></polygon>
</g>
<!-- BiasOnOff_1 -->
<g id="node14" class="node">
<title>BiasOnOff_1</title>
<g id="a_node14">
<ellipse fill="#d3d247" stroke="#000000" cx="288" cy="-148.5" rx="53.3071" ry="18"></ellipse>
<text text-anchor="middle" x="288" y="-144.3" font-family="Times,serif" font-size="14.00" fill="#000000">BiasOnOff</text>
</g>
</g>
<!-- BiasOnOff_1&#45;&gt;DirectedMotion_1 -->
<g id="edge2" class="edge">
<title>BiasOnOff_1-&gt;DirectedMotion_1</title>
<path fill="none" stroke="#112c5f" stroke-width="2" d="M313.2356,-132.4699C324.3328,-125.6757 337.6316,-117.8731 350,-111.5 377.332,-97.4165 408.6223,-83.4999 434.5858,-72.5234"></path>
<polygon fill="#112c5f" stroke="#112c5f" stroke-width="2" points="436.0265,-75.7146 443.8931,-68.6176 433.3177,-69.2599 436.0265,-75.7146"></polygon>
</g>
<!-- cell_center_1 -->
<g id="node15" class="node">
<title>cell_center_1</title>
<ellipse fill="#b5b426" stroke="#000000" cx="699" cy="-356.8" rx="50.9572" ry="18"></ellipse>
<text text-anchor="middle" x="699" y="-352.6" font-family="Times,serif" font-size="14.00" fill="#000000">cell.center</text>
</g>
<!-- cell_center_1&#45;&gt;cell_center_0 -->
<g id="edge11" class="edge">
<title>cell_center_1-&gt;cell_center_0</title>
<path fill="none" stroke="#38568c" stroke-dasharray="5,2" d="M727.135,-341.6038C735.5545,-337.6813 744.9573,-333.894 754,-331.5 893.2951,-294.6227 938.8875,-344.5852 1077,-303.5 1096.6632,-297.6507 1116.9856,-286.91 1132.7154,-277.3889"></path>
</g>
<!-- cell_id_1 -->
<g id="node16" class="node">
<title>cell_id_1</title>
<ellipse fill="#d3d247" stroke="#000000" cx="387" cy="-356.8" rx="34.8076" ry="18"></ellipse>
<text text-anchor="middle" x="387" y="-352.6" font-family="Times,serif" font-size="14.00" fill="#000000">cell.id</text>
</g>
<!-- cell_id_1&#45;&gt;cell_id_0 -->
<g id="edge15" class="edge">
<title>cell_id_1-&gt;cell_id_0</title>
<path fill="none" stroke="#38568c" stroke-dasharray="5,2" d="M408.6859,-342.4448C415.5866,-338.4002 423.4052,-334.3353 431,-331.5 548.6028,-287.5962 697.3419,-268.6706 766.4499,-261.8155"></path>
</g>
<!-- cell_type_1 -->
<g id="node17" class="node">
<title>cell_type_1</title>
<g id="a_node17">
<ellipse fill="#d3d247" stroke="#000000" cx="586" cy="-356.8" rx="44.0377" ry="18"></ellipse>
<text text-anchor="middle" x="586" y="-352.6" font-family="Times,serif" font-size="14.00" fill="#000000">cell.type</text>
</g>
</g>
<!-- cell_type_1&#45;&gt;cell_type_0 -->
<g id="edge16" class="edge">
<title>cell_type_1-&gt;cell_type_0</title>
<path fill="none" stroke="#38568c" stroke-dasharray="5,2" d="M611.9706,-342.1201C620.3543,-338.0107 629.8507,-333.9907 639,-331.5 778.4614,-293.5346 828.6268,-356.742 963,-303.5 976.9485,-297.9732 990.2458,-287.8611 1000.4834,-278.6207"></path>
</g>
<!-- last_turn_time_1 -->
<g id="node18" class="node">
<title>last_turn_time_1</title>
<g id="a_node18">
<ellipse fill="#d3d247" stroke="#000000" cx="267" cy="-356.8" rx="66.6498" ry="18"></ellipse>
<text text-anchor="middle" x="267" y="-352.6" font-family="Times,serif" font-size="14.00" fill="#000000">last_turn_time</text>
</g>
</g>
<!-- last_turn_time_1&#45;&gt;Event_3_725258311908466381_5 -->
<g id="edge17" class="edge">
<title>last_turn_time_1-&gt;Event_3_725258311908466381_5</title>
<path fill="none" stroke="#112c5f" stroke-width="2" d="M262.2762,-338.7703C257.8513,-329.0472 251.3242,-316.564 244.3919,-304.3533"></path>
<polygon fill="#112c5f" stroke="#112c5f" stroke-width="2" points="247.3366,-302.4538 239.2968,-295.5536 241.2787,-305.9614 247.3366,-302.4538"></polygon>
</g>
<!-- move_dir_1 -->
<g id="node19" class="node">
<title>move_dir_1</title>
<g id="a_node19">
<ellipse fill="#b5b426" stroke="#000000" cx="555" cy="-148.5" rx="48.0955" ry="18"></ellipse>
<text text-anchor="middle" x="555" y="-144.3" font-family="Times,serif" font-size="14.00" fill="#000000">move_dir</text>
</g>
</g>
<!-- move_dir_1&#45;&gt;DirectedMotion_1 -->
<g id="edge18" class="edge">
<title>move_dir_1-&gt;DirectedMotion_1</title>
<path fill="none" stroke="#112c5f" stroke-width="2" d="M543.2005,-130.9796C533.0968,-115.977 518.3949,-94.1469 506.8514,-77.0066"></path>
<polygon fill="#112c5f" stroke="#112c5f" stroke-width="2" points="509.6329,-74.8711 501.1439,-68.5318 503.8269,-78.7813 509.6329,-74.8711"></polygon>
</g>
<!-- run_time_1 -->
<g id="node20" class="node">
<title>run_time_1</title>
<g id="a_node20">
<ellipse fill="#d3d247" stroke="#000000" cx="136" cy="-356.8" rx="45.806" ry="18"></ellipse>
<text text-anchor="middle" x="136" y="-352.6" font-family="Times,serif" font-size="14.00" fill="#000000">run_time</text>
</g>
</g>
<!-- run_time_1&#45;&gt;Event_3_725258311908466381_5 -->
<g id="edge19" class="edge">
<title>run_time_1-&gt;Event_3_725258311908466381_5</title>
<path fill="none" stroke="#112c5f" stroke-width="2" d="M149.5873,-339.2259C157.2225,-329.3504 167.138,-316.5254 176.8095,-304.0161"></path>
<polygon fill="#112c5f" stroke="#112c5f" stroke-width="2" points="179.7558,-305.9276 183.1034,-295.8755 174.2179,-301.646 179.7558,-305.9276"></polygon>
</g>
<!-- velocity_1 -->
<g id="node21" class="node">
<title>velocity_1</title>
<g id="a_node21">
<ellipse fill="#b5b426" stroke="#000000" cx="482" cy="-356.8" rx="42.2932" ry="18"></ellipse>
<text text-anchor="middle" x="482" y="-352.6" font-family="Times,serif" font-size="14.00" fill="#000000">velocity</text>
</g>
</g>
<!-- velocity_1&#45;&gt;velocity_0 -->
<g id="edge22" class="edge">
<title>velocity_1-&gt;velocity_0</title>
<path fill="none" stroke="#38568c" stroke-dasharray="5,2" d="M506.9355,-342.1147C515.0003,-338.005 524.1507,-333.9862 533,-331.5 670.4441,-292.8848 720.7658,-357.3158 853,-303.5 866.5985,-297.9658 879.439,-287.8531 889.2879,-278.6143"></path>
</g>
<!-- Event_3_725258311908466381_5&#45;&gt;last_turn_time_1 -->
<g id="edge6" class="edge">
<title>Event_3_725258311908466381_5-&gt;last_turn_time_1</title>
<path fill="none" stroke="#8f100d" stroke-width="3" d="M226.3372,-295.8755C232.4935,-307.5082 239.7044,-320.0759 246.3917,-330.7582"></path>
<polygon fill="#8f100d" stroke="#8f100d" stroke-width="3" points="243.4908,-332.718 251.8512,-339.2259 249.374,-328.9248 243.4908,-332.718"></polygon>
</g>
<!-- Event_3_725258311908466381_5&#45;&gt;move_dir_1 -->
<g id="edge7" class="edge">
<title>Event_3_725258311908466381_5-&gt;move_dir_1</title>
<path fill="none" stroke="#8f100d" stroke-width="3" d="M259.5106,-221.4676C264.8777,-218.4009 270.4262,-215.6564 276,-213.5 368.7492,-177.6175 404.6018,-219.6577 498,-185.5 507.8059,-181.9138 517.6441,-176.3852 526.3203,-170.6858"></path>
<polygon fill="#8f100d" stroke="#8f100d" stroke-width="3" points="528.3232,-173.5561 534.5649,-164.9951 524.3468,-167.7952 528.3232,-173.5561"></polygon>
</g>
</g>
</svg>